{"status":true,"message":null,"data":{"current_page":1,"data":[{"id":10301,"name":"Barcelona 2026 Racing Bolivar Casual Shirt with modified crest","init_price":600,"offer_ratio":"25","availability":"available","image":"https:\/\/curva-app.nyc3.cdn.digitaloceanspaces.com\/assets\/uploads\/products\/1778271391-WhatsApp-Image-2026-05-08-at-21-24-06.webp?v=1","offer_price":450,"in_wishlist":false,"in_cart":false},{"id":10300,"name":"Barcelona 2026 Stone Wash Bolivar Polo Shirt with modified crest","init_price":600,"offer_ratio":"12.5","availability":"available","image":"https:\/\/curva-app.nyc3.cdn.digitaloceanspaces.com\/assets\/uploads\/products\/1778271386-WhatsApp-Image-2026-05-08-at-22-14-04.webp?v=1","offer_price":525,"in_wishlist":false,"in_cart":false},{"id":10299,"name":"Real Madrid 2026 Stone Wash Bolivar Polo Shirt","init_price":600,"offer_ratio":"12.5","availability":"available","image":"https:\/\/curva-app.nyc3.cdn.digitaloceanspaces.com\/assets\/uploads\/products\/1778270200-WhatsApp-Image-2026-05-08-at-21-23-59.webp?v=1","offer_price":525,"in_wishlist":false,"in_cart":false},{"id":10296,"name":"Zamalek 2025\/26 Polo Shirt AT-166","init_price":450,"offer_ratio":"33.33333333333333","availability":"available","image":"https:\/\/curva-app.nyc3.cdn.digitaloceanspaces.com\/assets\/uploads\/products\/1778260963-WhatsApp-Image-2026-05-08-at-19-27-37.webp?v=1","offer_price":300,"in_wishlist":false,"in_cart":false},{"id":10287,"name":"Nike Mind 002 Sneakers","init_price":3500,"offer_ratio":"35.714285714285715","availability":"coming soon","image":"https:\/\/curva-app.nyc3.cdn.digitaloceanspaces.com\/assets\/uploads\/products\/1778245458-WhatsApp-Image-2026-05-07-at-15-59-12-1-.webp?v=1","offer_price":2250,"in_wishlist":false,"in_cart":false}],"first_page_url":"https:\/\/octane.curvaegypt.com\/api\/offers?page=1","from":1,"last_page":266,"last_page_url":"https:\/\/octane.curvaegypt.com\/api\/offers?page=266","links":[{"url":null,"label":"&laquo; Previous","active":false},{"url":"https:\/\/octane.curvaegypt.com\/api\/offers?page=1","label":"1","active":true},{"url":"https:\/\/octane.curvaegypt.com\/api\/offers?page=2","label":"2","active":false},{"url":"https:\/\/octane.curvaegypt.com\/api\/offers?page=3","label":"3","active":false},{"url":"https:\/\/octane.curvaegypt.com\/api\/offers?page=4","label":"4","active":false},{"url":"https:\/\/octane.curvaegypt.com\/api\/offers?page=5","label":"5","active":false},{"url":"https:\/\/octane.curvaegypt.com\/api\/offers?page=6","label":"6","active":false},{"url":"https:\/\/octane.curvaegypt.com\/api\/offers?page=7","label":"7","active":false},{"url":"https:\/\/octane.curvaegypt.com\/api\/offers?page=8","label":"8","active":false},{"url":"https:\/\/octane.curvaegypt.com\/api\/offers?page=9","label":"9","active":false},{"url":"https:\/\/octane.curvaegypt.com\/api\/offers?page=10","label":"10","active":false},{"url":null,"label":"...","active":false},{"url":"https:\/\/octane.curvaegypt.com\/api\/offers?page=265","label":"265","active":false},{"url":"https:\/\/octane.curvaegypt.com\/api\/offers?page=266","label":"266","active":false},{"url":"https:\/\/octane.curvaegypt.com\/api\/offers?page=2","label":"Next &raquo;","active":false}],"next_page_url":"https:\/\/octane.curvaegypt.com\/api\/offers?page=2","path":"https:\/\/octane.curvaegypt.com\/api\/offers","per_page":"5","prev_page_url":null,"to":5,"total":1330}}