{"status":true,"message":null,"data":{"current_page":1,"data":[{"id":10307,"name":"Zamalek 2025\/26 Third Jersey with 3D logos TH-82","init_price":295,"offer_ratio":null,"availability":"available","tags":null,"image":"https:\/\/curva-app.nyc3.cdn.digitaloceanspaces.com\/assets\/uploads\/products\/1778416996-WhatsApp-Image-2026-05-10-at-15-16-33.webp?v=1","offer_price":null,"in_wishlist":false,"in_cart":false},{"id":10306,"name":"Zamalek 2025\/26 Home Jersey with Confederation Cup badges and 3D logos TH-81","init_price":295,"offer_ratio":null,"availability":"available","tags":null,"image":"https:\/\/curva-app.nyc3.cdn.digitaloceanspaces.com\/assets\/uploads\/products\/1778416992-WhatsApp-Image-2026-05-10-at-15-16-38.webp?v=1","offer_price":null,"in_wishlist":false,"in_cart":false},{"id":10305,"name":"Zamalek 2016\/17 Home Jersey with Shikabala 10 printing MN-45","init_price":325,"offer_ratio":null,"availability":"available","tags":null,"image":"https:\/\/curva-app.nyc3.cdn.digitaloceanspaces.com\/assets\/uploads\/products\/1778338431-WhatsApp-Image-2026-05-09-at-17-14-07.webp?v=1","offer_price":null,"in_wishlist":false,"in_cart":false},{"id":10304,"name":"Zamalek 2010\/11 Home Jersey with Shikabala #10 printing MN-44","init_price":315,"offer_ratio":null,"availability":"available","tags":null,"image":"https:\/\/curva-app.nyc3.cdn.digitaloceanspaces.com\/assets\/uploads\/products\/1778338424-WhatsApp-Image-2026-05-09-at-17-13-53.webp?v=1","offer_price":null,"in_wishlist":false,"in_cart":false},{"id":10303,"name":"Bayern Munich 2026\/27 Home Jersey MN-43","init_price":300,"offer_ratio":null,"availability":"available","tags":null,"image":"https:\/\/curva-app.nyc3.cdn.digitaloceanspaces.com\/assets\/uploads\/products\/1778338420-WhatsApp-Image-2026-05-09-at-17-14-28.webp?v=1","offer_price":null,"in_wishlist":false,"in_cart":false}],"first_page_url":"https:\/\/octane.curvaegypt.com\/api\/products?page=1","from":1,"last_page":27,"last_page_url":"https:\/\/octane.curvaegypt.com\/api\/products?page=27","links":[{"url":null,"label":"&laquo; Previous","active":false},{"url":"https:\/\/octane.curvaegypt.com\/api\/products?page=1","label":"1","active":true},{"url":"https:\/\/octane.curvaegypt.com\/api\/products?page=2","label":"2","active":false},{"url":"https:\/\/octane.curvaegypt.com\/api\/products?page=3","label":"3","active":false},{"url":"https:\/\/octane.curvaegypt.com\/api\/products?page=4","label":"4","active":false},{"url":"https:\/\/octane.curvaegypt.com\/api\/products?page=5","label":"5","active":false},{"url":"https:\/\/octane.curvaegypt.com\/api\/products?page=6","label":"6","active":false},{"url":"https:\/\/octane.curvaegypt.com\/api\/products?page=7","label":"7","active":false},{"url":"https:\/\/octane.curvaegypt.com\/api\/products?page=8","label":"8","active":false},{"url":"https:\/\/octane.curvaegypt.com\/api\/products?page=9","label":"9","active":false},{"url":"https:\/\/octane.curvaegypt.com\/api\/products?page=10","label":"10","active":false},{"url":null,"label":"...","active":false},{"url":"https:\/\/octane.curvaegypt.com\/api\/products?page=26","label":"26","active":false},{"url":"https:\/\/octane.curvaegypt.com\/api\/products?page=27","label":"27","active":false},{"url":"https:\/\/octane.curvaegypt.com\/api\/products?page=2","label":"Next &raquo;","active":false}],"next_page_url":"https:\/\/octane.curvaegypt.com\/api\/products?page=2","path":"https:\/\/octane.curvaegypt.com\/api\/products","per_page":5,"prev_page_url":null,"to":5,"total":131}}